{"_id":{"$oid":"5cd2a83786bc0a88b4559b7e"},"tracks":[{"id":"TRAC-b16d6a86-8f46-4c6c-b949-1a7c1b5111a5","serviceid":3129413,"service":null},{"id":"TRAC-a23a0bb7-6be7-4087-ab93-9aa33ffb5844","serviceid":3129407,"service":null},{"id":"TRAC-94b5b79d-4bb1-49de-8fc6-107e36a7bb9e","serviceid":5490699,"service":null},{"id":"TRAC-3f062597-4e77-41e9-b648-2549fcec98c5","serviceid":3100444,"service":null},{"id":"TRAC-d85d887d-20a3-4633-a727-9ce371180716","serviceid":3129404,"service":null},{"id":"TRAC-729982cc-91f4-4d06-aa51-2fa7cba0774d","serviceid":3100456,"service":null},{"id":"TRAC-a5e0b7a4-024f-419b-a87c-c3124e57aec5","serviceid":510551662,"service":null},{"id":"TRAC-2b3d9b36-2f4d-45df-b874-268be1e46bc9","serviceid":3129406,"service":null},{"id":"TRAC-916ffa63-c9d2-4e20-b0d9-0dc951d3fcf5","serviceid":517538252,"service":null},{"id":"TRAC-ef0b0a1c-eb6d-49bd-9f3c-9aac3de9e802","serviceid":517538262,"service":null},{"id":"TRAC-90dfd543-17fb-4fd3-8254-87f38a55f6bd","serviceid":5490694,"service":null},{"id":"TRAC-d1738256-e2c7-4f2c-954b-94f17b14ec91","serviceid":3100450,"service":null},{"id":"TRAC-556a489d-06a8-4e59-89c9-bd6139de3c7a","serviceid":3129403,"service":null},{"id":"TRAC-f1f640f6-e030-4307-97b7-beadc7bb5079","serviceid":3129408,"service":null},{"id":"TRAC-5d1f1c36-31b6-4631-935f-5475c22ee3df","serviceid":3100442,"service":null},{"id":"TRAC-c044c2e5-9016-4bbf-bbb7-4d290f0d4591","serviceid":354195901,"service":null}],"guests":["USER-e5859cbb-5869-4df0-a8ef-66cfd6beee8c","USER-b6f73ae2-d9b1-4925-8de6-faf012f43ff8","USER-44996022-84bb-44ee-a203-f9ce496fb14c","USER-63cd5d20-d3e2-4c34-934d-eeebe378f782"],"editors":["USER-e5859cbb-5869-4df0-a8ef-66cfd6beee8c","USER-b6f73ae2-d9b1-4925-8de6-faf012f43ff8","USER-63cd5d20-d3e2-4c34-934d-eeebe378f782"],"id":"PLAY-f1496dca-ac5f-42df-852a-3064785752ad","name":"A - Gorillaz Playlist","owner":"USER-4df08939-1cea-42a1-b6ca-86b974a94109","events":["EVEN-66bdea98-6a32-46df-b660-3d1648ed2f62","EVEN-e574e9ff-1691-4379-90e1-d64b7ed2868c"],"visibility":"PRIVATE","editing":"PRIVATE","sortingType":"vote"}
{"_id":{"$oid":"5cd2a8d886bc0a88b4559b7f"},"tracks":[{"id":"TRAC-5d9fe5f8-f7eb-4bef-9a2b-ae92b90356ae","serviceid":68612795,"service":null},{"id":"TRAC-89454f12-dab3-48ef-a098-74485bf517c4","serviceid":68612711,"service":null},{"id":"TRAC-5faf631c-c408-4ee8-8457-5172a5dc11d5","serviceid":68612756,"service":null},{"id":"TRAC-80ce3745-446f-4db2-b9c7-e073f135eb7e","serviceid":68612761,"service":null},{"id":"TRAC-c3e353ac-decd-41a7-a5e3-6a10ce82e33f","serviceid":68612766,"service":null}],"guests":["USER-e5859cbb-5869-4df0-a8ef-66cfd6beee8c","USER-63cd5d20-d3e2-4c34-934d-eeebe378f782"],"editors":["USER-63cd5d20-d3e2-4c34-934d-eeebe378f782"],"id":"PLAY-5c627850-fda2-4179-b5c5-7dc0bc9f0f72","name":"A - Baroque","owner":"USER-4df08939-1cea-42a1-b6ca-86b974a94109","events":["EVEN-e574e9ff-1691-4379-90e1-d64b7ed2868c"],"visibility":"PRIVATE","editing":"PRIVATE","sortingType":"move"}
{"_id":{"$oid":"5cd2ab9586bc0a88b4559b82"},"tracks":[{"id":"TRAC-dac30518-a31a-44ac-8d2d-f3bf457b35cf","serviceid":435821682,"service":null},{"id":"TRAC-bbde8176-fd78-4fd9-a59d-48108eb10da7","serviceid":438868572,"service":null},{"id":"TRAC-79a9743b-12b6-4319-a395-33eb10484842","serviceid":435821802,"service":null},{"id":"TRAC-2781855e-a686-4b50-9be6-7ffb3aff923e","serviceid":435821762,"service":null},{"id":"TRAC-b23ce114-831a-403f-b8e0-8a4becd06781","serviceid":435821932,"service":null},{"id":"TRAC-3f116746-61cc-4176-b69c-d415a2ff4cfc","serviceid":435821862,"service":null}],"guests":[],"editors":[],"id":"PLAY-325a5a7b-2b5a-4d5e-9608-8aa9a0159a3d","name":"Best of Music","owner":"USER-63cd5d20-d3e2-4c34-934d-eeebe378f782","events":["EVEN-e574e9ff-1691-4379-90e1-d64b7ed2868c"],"visibility":"PUBLIC","editing":"PUBLIC","sortingType":"vote"}
{"_id":{"$oid":"5cd2c97886bc0a88b4559b85"},"tracks":[{"id":"TRAC-891daaf8-5397-48fb-97d4-4bb1cca36fdb","serviceid":4762933,"service":null},{"id":"TRAC-6b155f75-dd53-41bf-bc98-7fadeb82ddd9","serviceid":871455,"service":null},{"id":"TRAC-1e092a15-99a1-4fe6-b92d-a3efc1f9a817","serviceid":4762941,"service":null},{"id":"TRAC-d8111a82-1f11-4e50-ad73-d0b91fd5fed9","serviceid":2204995,"service":null},{"id":"TRAC-fe4235b8-557f-4129-ac40-2c55e1a7f2f2","serviceid":4762943,"service":null}],"guests":[],"editors":[],"id":"PLAY-b71bbafe-e6da-4974-9fbe-59adb8799eb9","name":"Céline Dion","owner":"USER-4df08939-1cea-42a1-b6ca-86b974a94109","events":["EVEN-1b6793ae-ae2e-41ca-ba73-ac8f3596a710"],"visibility":"PUBLIC","editing":"PUBLIC","sortingType":"vote"}
